%YAML 1.1
%TAG !u! tag:unity3d.com,2011:
--- !u!1001 &5536409925097683801
PrefabInstance:
  m_ObjectHideFlags: 0
  serializedVersion: 2
  m_Modification:
    m_TransformParent: {fileID: 0}
    m_Modifications:
    - target: {fileID: 4419181919594326866, guid: 070146754ed02c842b2565fd207c17f2, type: 3}
      propertyPath: m_Name
      value: asteroide Variant
      objectReference: {fileID: 0}
    - target: {fileID: 7444876422519032453, guid: 070146754ed02c842b2565fd207c17f2, type: 3}
      propertyPath: m_Materials.Array.data[0]
      value: 
      objectReference: {fileID: 2100000, guid: 914d3d4e25ab21449bc6c224025c7bd6, type: 2}
    - target: {fileID: 7990159224581096032, guid: 070146754ed02c842b2565fd207c17f2, type: 3}
      propertyPath: m_RootOrder
      value: 0
      objectReference: {fileID: 0}
    - target: {fileID: 7990159224581096032, guid: 070146754ed02c842b2565fd207c17f2, type: 3}
      propertyPath: m_LocalPosition.x
      value: 0
      objectReference: {fileID: 0}
    - target: {fileID: 7990159224581096032, guid: 070146754ed02c842b2565fd207c17f2, type: 3}
      propertyPath: m_LocalPosition.y
      value: 0
      objectReference: {fileID: 0}
    - target: {fileID: 7990159224581096032, guid: 070146754ed02c842b2565fd207c17f2, type: 3}
      propertyPath: m_LocalPosition.z
      value: 0
      objectReference: {fileID: 0}
    - target: {fileID: 7990159224581096032, guid: 070146754ed02c842b2565fd207c17f2, type: 3}
      propertyPath: m_LocalRotation.w
      value: 1
      objectReference: {fileID: 0}
    - target: {fileID: 7990159224581096032, guid: 070146754ed02c842b2565fd207c17f2, type: 3}
      propertyPath: m_LocalRotation.x
      value: 0
      objectReference: {fileID: 0}
    - target: {fileID: 7990159224581096032, guid: 070146754ed02c842b2565fd207c17f2, type: 3}
      propertyPath: m_LocalRotation.y
      value: 0
      objectReference: {fileID: 0}
    - target: {fileID: 7990159224581096032, guid: 070146754ed02c842b2565fd207c17f2, type: 3}
      propertyPath: m_LocalRotation.z
      value: 0
      objectReference: {fileID: 0}
    - target: {fileID: 7990159224581096032, guid: 070146754ed02c842b2565fd207c17f2, type: 3}
      propertyPath: m_LocalEulerAnglesHint.x
      value: 0
      objectReference: {fileID: 0}
    - target: {fileID: 7990159224581096032, guid: 070146754ed02c842b2565fd207c17f2, type: 3}
      propertyPath: m_LocalEulerAnglesHint.y
      value: 0
      objectReference: {fileID: 0}
    - target: {fileID: 7990159224581096032, guid: 070146754ed02c842b2565fd207c17f2, type: 3}
      propertyPath: m_LocalEulerAnglesHint.z
      value: 0
      objectReference: {fileID: 0}
    m_RemovedComponents: []
  m_SourcePrefab: {fileID: 100100000, guid: 070146754ed02c842b2565fd207c17f2, type: 3}
