%YAML 1.1
%TAG !u! tag:unity3d.com,2011:
--- !u!1 &6218808763192744756
GameObject:
  m_ObjectHideFlags: 0
  m_CorrespondingSourceObject: {fileID: 0}
  m_PrefabInstance: {fileID: 0}
  m_PrefabAsset: {fileID: 0}
  serializedVersion: 6
  m_Component:
  - component: {fileID: 6218808763192744757}
  - component: {fileID: 1617694957505760336}
  m_Layer: 0
  m_Name: Controlador-Juego
  m_TagString: Untagged
  m_Icon: {fileID: 0}
  m_NavMeshLayer: 0
  m_StaticEditorFlags: 0
  m_IsActive: 1
--- !u!4 &6218808763192744757
Transform:
  m_ObjectHideFlags: 0
  m_CorrespondingSourceObject: {fileID: 0}
  m_PrefabInstance: {fileID: 0}
  m_PrefabAsset: {fileID: 0}
  m_GameObject: {fileID: 6218808763192744756}
  m_LocalRotation: {x: 0, y: 0, z: 0, w: 1}
  m_LocalPosition: {x: 0, y: 0, z: 0}
  m_LocalScale: {x: 1, y: 1, z: 1}
  m_Children: []
  m_Father: {fileID: 0}
  m_RootOrder: 0
  m_LocalEulerAnglesHint: {x: 0, y: 0, z: 0}
--- !u!114 &1617694957505760336
MonoBehaviour:
  m_ObjectHideFlags: 0
  m_CorrespondingSourceObject: {fileID: 0}
  m_PrefabInstance: {fileID: 0}
  m_PrefabAsset: {fileID: 0}
  m_GameObject: {fileID: 6218808763192744756}
  m_Enabled: 1
  m_EditorHideFlags: 0
  m_Script: {fileID: 11500000, guid: 955240215f5954c4b8d45c2f99e23769, type: 3}
  m_Name: 
  m_EditorClassIdentifier: 
  enemigos:
  - {fileID: 4466618367369778911, guid: 37776dce1e68e7d468b370a6036a1465, type: 3}
  - {fileID: 4466618367369778911, guid: 1644ddf78a3c65a43b6eedff33132623, type: 3}
  - {fileID: 1844707344915255114, guid: afb745a8285030e4db46afc287d9c22e, type: 3}
  - {fileID: 4466618367369778911, guid: db97f5ef5f92edc4b97ba0fe107d4f3d, type: 3}
  aparacionesEnem:
  - indiceEnem: 0
    posInicioX: 0
    tiempoInicio: 1
    yaHaAparecido: 0
  - indiceEnem: 1
    posInicioX: -2
    tiempoInicio: 4
    yaHaAparecido: 0
  - indiceEnem: 2
    posInicioX: 3
    tiempoInicio: 8
    yaHaAparecido: 0
  - indiceEnem: 3
    posInicioX: 3
    tiempoInicio: 12
    yaHaAparecido: 0
  - indiceEnem: 0
    posInicioX: -1
    tiempoInicio: 16
    yaHaAparecido: 0
  - indiceEnem: 1
    posInicioX: 5
    tiempoInicio: 20
    yaHaAparecido: 0
  - indiceEnem: 2
    posInicioX: -2
    tiempoInicio: 23
    yaHaAparecido: 0
  - indiceEnem: 3
    posInicioX: 3
    tiempoInicio: 26
    yaHaAparecido: 0
  vidas: 7
  puntos: 0
  textoVidas: {fileID: 0}
  textoPuntos: {fileID: 0}
