{
  "project_info": {
    "project_number": "140251371517",
    "project_id": "animacionpersonaje-171af",
    "storage_bucket": "animacionpersonaje-171af.appspot.com"
  },
  "client": [
    {
      "client_info": {
        "mobilesdk_app_id": "1:140251371517:android:3243d6653a77c216cdeb94",
        "android_client_info": {
          "package_name": "com.DefaultCompany.AnimacionPersonaje"
        }
      },
      "oauth_client": [
        {
          "client_id": "140251371517-nd3jvr2hgk22pkoqdkj59116ipsc9j1f.apps.googleusercontent.com",
          "client_type": 3
        }
      ],
      "api_key": [
        {
          "current_key": "AIzaSyBsJMjhocWaeMNEq80Z6N5DzIn6OL3MYKc"
        }
      ],
      "services": {
        "appinvite_service": {
          "other_platform_oauth_client": [
            {
              "client_id": "140251371517-nd3jvr2hgk22pkoqdkj59116ipsc9j1f.apps.googleusercontent.com",
              "client_type": 3
            }
          ]
        }
      }
    }
  ],
  "configuration_version": "1"
}